^W:\STUDENT\2017-18\ST20123567\CROSSPLATFORMSERIALISATION\SRC\BUILD\GOOGLETEST-DOWNLOAD\CMAKEFILES\08CCA405A601E37ED5D5D6243DEE1522\GOOGLETEST-MKDIR.RULE
W:\STUDENT\2017-18\ST20123567\CROSSPLATFORMSERIALISATION\SRC\BUILD\GOOGLETEST-DOWNLOAD\GOOGLETEST-PREFIX\SRC\GOOGLETEST-STAMP\DEBUG\GOOGLETEST-MKDIR
^W:\STUDENT\2017-18\ST20123567\CROSSPLATFORMSERIALISATION\SRC\BUILD\GOOGLETEST-DOWNLOAD\CMAKEFILES\08CCA405A601E37ED5D5D6243DEE1522\GOOGLETEST-DOWNLOAD.RULE
W:\STUDENT\2017-18\ST20123567\CROSSPLATFORMSERIALISATION\SRC\BUILD\GOOGLETEST-DOWNLOAD\GOOGLETEST-PREFIX\SRC\GOOGLETEST-STAMP\DEBUG\GOOGLETEST-DOWNLOAD
^W:\STUDENT\2017-18\ST20123567\CROSSPLATFORMSERIALISATION\SRC\BUILD\GOOGLETEST-DOWNLOAD\CMAKEFILES\08CCA405A601E37ED5D5D6243DEE1522\GOOGLETEST-UPDATE.RULE
W:\STUDENT\2017-18\ST20123567\CROSSPLATFORMSERIALISATION\SRC\BUILD\GOOGLETEST-DOWNLOAD\GOOGLETEST-PREFIX\SRC\GOOGLETEST-STAMP\DEBUG\GOOGLETEST-UPDATE
^W:\STUDENT\2017-18\ST20123567\CROSSPLATFORMSERIALISATION\SRC\BUILD\GOOGLETEST-DOWNLOAD\CMAKEFILES\08CCA405A601E37ED5D5D6243DEE1522\GOOGLETEST-PATCH.RULE
W:\STUDENT\2017-18\ST20123567\CROSSPLATFORMSERIALISATION\SRC\BUILD\GOOGLETEST-DOWNLOAD\GOOGLETEST-PREFIX\SRC\GOOGLETEST-STAMP\DEBUG\GOOGLETEST-PATCH
^W:\STUDENT\2017-18\ST20123567\CROSSPLATFORMSERIALISATION\SRC\BUILD\GOOGLETEST-DOWNLOAD\CMAKEFILES\08CCA405A601E37ED5D5D6243DEE1522\GOOGLETEST-CONFIGURE.RULE
W:\STUDENT\2017-18\ST20123567\CROSSPLATFORMSERIALISATION\SRC\BUILD\GOOGLETEST-DOWNLOAD\GOOGLETEST-PREFIX\SRC\GOOGLETEST-STAMP\DEBUG\GOOGLETEST-CONFIGURE
^W:\STUDENT\2017-18\ST20123567\CROSSPLATFORMSERIALISATION\SRC\BUILD\GOOGLETEST-DOWNLOAD\CMAKEFILES\08CCA405A601E37ED5D5D6243DEE1522\GOOGLETEST-BUILD.RULE
W:\STUDENT\2017-18\ST20123567\CROSSPLATFORMSERIALISATION\SRC\BUILD\GOOGLETEST-DOWNLOAD\GOOGLETEST-PREFIX\SRC\GOOGLETEST-STAMP\DEBUG\GOOGLETEST-BUILD
^W:\STUDENT\2017-18\ST20123567\CROSSPLATFORMSERIALISATION\SRC\BUILD\GOOGLETEST-DOWNLOAD\CMAKEFILES\08CCA405A601E37ED5D5D6243DEE1522\GOOGLETEST-INSTALL.RULE
W:\STUDENT\2017-18\ST20123567\CROSSPLATFORMSERIALISATION\SRC\BUILD\GOOGLETEST-DOWNLOAD\GOOGLETEST-PREFIX\SRC\GOOGLETEST-STAMP\DEBUG\GOOGLETEST-INSTALL
^W:\STUDENT\2017-18\ST20123567\CROSSPLATFORMSERIALISATION\SRC\BUILD\GOOGLETEST-DOWNLOAD\CMAKEFILES\08CCA405A601E37ED5D5D6243DEE1522\GOOGLETEST-TEST.RULE
W:\STUDENT\2017-18\ST20123567\CROSSPLATFORMSERIALISATION\SRC\BUILD\GOOGLETEST-DOWNLOAD\GOOGLETEST-PREFIX\SRC\GOOGLETEST-STAMP\DEBUG\GOOGLETEST-TEST
^W:\STUDENT\2017-18\ST20123567\CROSSPLATFORMSERIALISATION\SRC\BUILD\GOOGLETEST-DOWNLOAD\CMAKEFILES\BEA5D1D176B99DF413E5C9EE280A9930\GOOGLETEST-COMPLETE.RULE
W:\STUDENT\2017-18\ST20123567\CROSSPLATFORMSERIALISATION\SRC\BUILD\GOOGLETEST-DOWNLOAD\CMAKEFILES\DEBUG\GOOGLETEST-COMPLETE
^W:\STUDENT\2017-18\ST20123567\CROSSPLATFORMSERIALISATION\SRC\BUILD\GOOGLETEST-DOWNLOAD\CMAKEFILES\14D55147E9D238748D74122D5563F6C7\GOOGLETEST.RULE
W:\STUDENT\2017-18\ST20123567\CROSSPLATFORMSERIALISATION\SRC\BUILD\GOOGLETEST-DOWNLOAD\CMAKEFILES\GOOGLETEST
^W:\STUDENT\2017-18\ST20123567\CROSSPLATFORMSERIALISATION\SRC\BUILD\GOOGLETEST-DOWNLOAD\CMAKELISTS.TXT
W:\STUDENT\2017-18\ST20123567\CROSSPLATFORMSERIALISATION\SRC\BUILD\GOOGLETEST-DOWNLOAD\CMAKEFILES\GENERATE.STAMP
