^W:\STUDENT\2017-18\ST20123567\CROSSPLATFORMSERIALISATION\SRC\BUILD\GOOGLETEST-DOWNLOAD\CMAKEFILES\08CCA405A601E37ED5D5D6243DEE1522\GOOGLETEST-MKDIR.RULE
setlocal
"C:\Program Files\CMake\bin\cmake.exe" -E make_directory W:/Student/2017-18/st20123567/crossplatformserialisation/src/build/googletest-src
if %errorlevel% neq 0 goto :cmEnd
"C:\Program Files\CMake\bin\cmake.exe" -E make_directory W:/Student/2017-18/st20123567/crossplatformserialisation/src/build/googletest-build
if %errorlevel% neq 0 goto :cmEnd
"C:\Program Files\CMake\bin\cmake.exe" -E make_directory W:/Student/2017-18/st20123567/crossplatformserialisation/src/build/googletest-download/googletest-prefix
if %errorlevel% neq 0 goto :cmEnd
"C:\Program Files\CMake\bin\cmake.exe" -E make_directory W:/Student/2017-18/st20123567/crossplatformserialisation/src/build/googletest-download/googletest-prefix/tmp
if %errorlevel% neq 0 goto :cmEnd
"C:\Program Files\CMake\bin\cmake.exe" -E make_directory W:/Student/2017-18/st20123567/crossplatformserialisation/src/build/googletest-download/googletest-prefix/src/googletest-stamp/Debug
if %errorlevel% neq 0 goto :cmEnd
"C:\Program Files\CMake\bin\cmake.exe" -E make_directory W:/Student/2017-18/st20123567/crossplatformserialisation/src/build/googletest-download/googletest-prefix/src
if %errorlevel% neq 0 goto :cmEnd
"C:\Program Files\CMake\bin\cmake.exe" -E make_directory W:/Student/2017-18/st20123567/crossplatformserialisation/src/build/googletest-download/googletest-prefix/src/googletest-stamp
if %errorlevel% neq 0 goto :cmEnd
"C:\Program Files\CMake\bin\cmake.exe" -E touch W:/Student/2017-18/st20123567/crossplatformserialisation/src/build/googletest-download/googletest-prefix/src/googletest-stamp/Debug/googletest-mkdir
if %errorlevel% neq 0 goto :cmEnd
:cmEnd
endlocal & call :cmErrorLevel %errorlevel% & goto :cmDone
:cmErrorLevel
exit /b %1
:cmDone
if %errorlevel% neq 0 goto :VCEnd
^W:\STUDENT\2017-18\ST20123567\CROSSPLATFORMSERIALISATION\SRC\BUILD\GOOGLETEST-DOWNLOAD\CMAKEFILES\08CCA405A601E37ED5D5D6243DEE1522\GOOGLETEST-DOWNLOAD.RULE
setlocal
cd W:\Student\2017-18\st20123567\crossplatformserialisation\src\build
if %errorlevel% neq 0 goto :cmEnd
W:
if %errorlevel% neq 0 goto :cmEnd
"C:\Program Files\CMake\bin\cmake.exe" -P W:/Student/2017-18/st20123567/crossplatformserialisation/src/build/googletest-download/googletest-prefix/tmp/googletest-gitclone.cmake
if %errorlevel% neq 0 goto :cmEnd
"C:\Program Files\CMake\bin\cmake.exe" -E touch W:/Student/2017-18/st20123567/crossplatformserialisation/src/build/googletest-download/googletest-prefix/src/googletest-stamp/Debug/googletest-download
if %errorlevel% neq 0 goto :cmEnd
:cmEnd
endlocal & call :cmErrorLevel %errorlevel% & goto :cmDone
:cmErrorLevel
exit /b %1
:cmDone
if %errorlevel% neq 0 goto :VCEnd
^W:\STUDENT\2017-18\ST20123567\CROSSPLATFORMSERIALISATION\SRC\BUILD\GOOGLETEST-DOWNLOAD\CMAKEFILES\08CCA405A601E37ED5D5D6243DEE1522\GOOGLETEST-UPDATE.RULE
setlocal
cd W:\Student\2017-18\st20123567\crossplatformserialisation\src\build\googletest-src
if %errorlevel% neq 0 goto :cmEnd
W:
if %errorlevel% neq 0 goto :cmEnd
"C:\Program Files\CMake\bin\cmake.exe" -P W:/Student/2017-18/st20123567/crossplatformserialisation/src/build/googletest-download/googletest-prefix/tmp/googletest-gitupdate.cmake
if %errorlevel% neq 0 goto :cmEnd
:cmEnd
endlocal & call :cmErrorLevel %errorlevel% & goto :cmDone
:cmErrorLevel
exit /b %1
:cmDone
if %errorlevel% neq 0 goto :VCEnd
^W:\STUDENT\2017-18\ST20123567\CROSSPLATFORMSERIALISATION\SRC\BUILD\GOOGLETEST-DOWNLOAD\CMAKEFILES\08CCA405A601E37ED5D5D6243DEE1522\GOOGLETEST-PATCH.RULE
setlocal
"C:\Program Files\CMake\bin\cmake.exe" -E echo_append
if %errorlevel% neq 0 goto :cmEnd
"C:\Program Files\CMake\bin\cmake.exe" -E touch W:/Student/2017-18/st20123567/crossplatformserialisation/src/build/googletest-download/googletest-prefix/src/googletest-stamp/Debug/googletest-patch
if %errorlevel% neq 0 goto :cmEnd
:cmEnd
endlocal & call :cmErrorLevel %errorlevel% & goto :cmDone
:cmErrorLevel
exit /b %1
:cmDone
if %errorlevel% neq 0 goto :VCEnd
^W:\STUDENT\2017-18\ST20123567\CROSSPLATFORMSERIALISATION\SRC\BUILD\GOOGLETEST-DOWNLOAD\CMAKEFILES\08CCA405A601E37ED5D5D6243DEE1522\GOOGLETEST-CONFIGURE.RULE
setlocal
cd W:\Student\2017-18\st20123567\crossplatformserialisation\src\build\googletest-build
if %errorlevel% neq 0 goto :cmEnd
W:
if %errorlevel% neq 0 goto :cmEnd
"C:\Program Files\CMake\bin\cmake.exe" -E echo_append
if %errorlevel% neq 0 goto :cmEnd
"C:\Program Files\CMake\bin\cmake.exe" -E touch W:/Student/2017-18/st20123567/crossplatformserialisation/src/build/googletest-download/googletest-prefix/src/googletest-stamp/Debug/googletest-configure
if %errorlevel% neq 0 goto :cmEnd
:cmEnd
endlocal & call :cmErrorLevel %errorlevel% & goto :cmDone
:cmErrorLevel
exit /b %1
:cmDone
if %errorlevel% neq 0 goto :VCEnd
^W:\STUDENT\2017-18\ST20123567\CROSSPLATFORMSERIALISATION\SRC\BUILD\GOOGLETEST-DOWNLOAD\CMAKEFILES\08CCA405A601E37ED5D5D6243DEE1522\GOOGLETEST-BUILD.RULE
setlocal
cd W:\Student\2017-18\st20123567\crossplatformserialisation\src\build\googletest-build
if %errorlevel% neq 0 goto :cmEnd
W:
if %errorlevel% neq 0 goto :cmEnd
"C:\Program Files\CMake\bin\cmake.exe" -E echo_append
if %errorlevel% neq 0 goto :cmEnd
"C:\Program Files\CMake\bin\cmake.exe" -E touch W:/Student/2017-18/st20123567/crossplatformserialisation/src/build/googletest-download/googletest-prefix/src/googletest-stamp/Debug/googletest-build
if %errorlevel% neq 0 goto :cmEnd
:cmEnd
endlocal & call :cmErrorLevel %errorlevel% & goto :cmDone
:cmErrorLevel
exit /b %1
:cmDone
if %errorlevel% neq 0 goto :VCEnd
^W:\STUDENT\2017-18\ST20123567\CROSSPLATFORMSERIALISATION\SRC\BUILD\GOOGLETEST-DOWNLOAD\CMAKEFILES\08CCA405A601E37ED5D5D6243DEE1522\GOOGLETEST-INSTALL.RULE
setlocal
cd W:\Student\2017-18\st20123567\crossplatformserialisation\src\build\googletest-build
if %errorlevel% neq 0 goto :cmEnd
W:
if %errorlevel% neq 0 goto :cmEnd
"C:\Program Files\CMake\bin\cmake.exe" -E echo_append
if %errorlevel% neq 0 goto :cmEnd
"C:\Program Files\CMake\bin\cmake.exe" -E touch W:/Student/2017-18/st20123567/crossplatformserialisation/src/build/googletest-download/googletest-prefix/src/googletest-stamp/Debug/googletest-install
if %errorlevel% neq 0 goto :cmEnd
:cmEnd
endlocal & call :cmErrorLevel %errorlevel% & goto :cmDone
:cmErrorLevel
exit /b %1
:cmDone
if %errorlevel% neq 0 goto :VCEnd
^W:\STUDENT\2017-18\ST20123567\CROSSPLATFORMSERIALISATION\SRC\BUILD\GOOGLETEST-DOWNLOAD\CMAKEFILES\08CCA405A601E37ED5D5D6243DEE1522\GOOGLETEST-TEST.RULE
setlocal
cd W:\Student\2017-18\st20123567\crossplatformserialisation\src\build\googletest-build
if %errorlevel% neq 0 goto :cmEnd
W:
if %errorlevel% neq 0 goto :cmEnd
"C:\Program Files\CMake\bin\cmake.exe" -E echo_append
if %errorlevel% neq 0 goto :cmEnd
"C:\Program Files\CMake\bin\cmake.exe" -E touch W:/Student/2017-18/st20123567/crossplatformserialisation/src/build/googletest-download/googletest-prefix/src/googletest-stamp/Debug/googletest-test
if %errorlevel% neq 0 goto :cmEnd
:cmEnd
endlocal & call :cmErrorLevel %errorlevel% & goto :cmDone
:cmErrorLevel
exit /b %1
:cmDone
if %errorlevel% neq 0 goto :VCEnd
^W:\STUDENT\2017-18\ST20123567\CROSSPLATFORMSERIALISATION\SRC\BUILD\GOOGLETEST-DOWNLOAD\CMAKEFILES\BEA5D1D176B99DF413E5C9EE280A9930\GOOGLETEST-COMPLETE.RULE
setlocal
"C:\Program Files\CMake\bin\cmake.exe" -E make_directory W:/Student/2017-18/st20123567/crossplatformserialisation/src/build/googletest-download/CMakeFiles/Debug
if %errorlevel% neq 0 goto :cmEnd
"C:\Program Files\CMake\bin\cmake.exe" -E touch W:/Student/2017-18/st20123567/crossplatformserialisation/src/build/googletest-download/CMakeFiles/Debug/googletest-complete
if %errorlevel% neq 0 goto :cmEnd
"C:\Program Files\CMake\bin\cmake.exe" -E touch W:/Student/2017-18/st20123567/crossplatformserialisation/src/build/googletest-download/googletest-prefix/src/googletest-stamp/Debug/googletest-done
if %errorlevel% neq 0 goto :cmEnd
:cmEnd
endlocal & call :cmErrorLevel %errorlevel% & goto :cmDone
:cmErrorLevel
exit /b %1
:cmDone
if %errorlevel% neq 0 goto :VCEnd
^W:\STUDENT\2017-18\ST20123567\CROSSPLATFORMSERIALISATION\SRC\BUILD\GOOGLETEST-DOWNLOAD\CMAKEFILES\14D55147E9D238748D74122D5563F6C7\GOOGLETEST.RULE
setlocal
:cmEnd
endlocal & call :cmErrorLevel %errorlevel% & goto :cmDone
:cmErrorLevel
exit /b %1
:cmDone
if %errorlevel% neq 0 goto :VCEnd
^W:\STUDENT\2017-18\ST20123567\CROSSPLATFORMSERIALISATION\SRC\BUILD\GOOGLETEST-DOWNLOAD\CMAKELISTS.TXT
setlocal
"C:\Program Files\CMake\bin\cmake.exe" -SW:/Student/2017-18/st20123567/crossplatformserialisation/src/build/googletest-download -BW:/Student/2017-18/st20123567/crossplatformserialisation/src/build/googletest-download --check-stamp-file W:/Student/2017-18/st20123567/crossplatformserialisation/src/build/googletest-download/CMakeFiles/generate.stamp
if %errorlevel% neq 0 goto :cmEnd
:cmEnd
endlocal & call :cmErrorLevel %errorlevel% & goto :cmDone
:cmErrorLevel
exit /b %1
:cmDone
if %errorlevel% neq 0 goto :VCEnd
