^W:\STUDENT\2017-18\ST20123567\CROSSPLATFORMSERIALISATION\SRC\BUILD\GOOGLETEST-DOWNLOAD\CMAKEFILES\14D55147E9D238748D74122D5563F6C7\GENERATE.STAMP.RULE
setlocal
"C:\Program Files\CMake\bin\cmake.exe" -SW:/Student/2017-18/st20123567/crossplatformserialisation/src/build/googletest-download -BW:/Student/2017-18/st20123567/crossplatformserialisation/src/build/googletest-download --check-stamp-list CMakeFiles/generate.stamp.list --vs-solution-file W:/Student/2017-18/st20123567/crossplatformserialisation/src/build/googletest-download/googletest-download.sln
if %errorlevel% neq 0 goto :cmEnd
:cmEnd
endlocal & call :cmErrorLevel %errorlevel% & goto :cmDone
:cmErrorLevel
exit /b %1
:cmDone
if %errorlevel% neq 0 goto :VCEnd
