^W:\STUDENT\2017-18\ST20123567\CROSSPLATFORMSERIALISATION\SRC\BUILD\SERIALISATION\SERIALISATION.DIR\DEBUG\INPUTMEMORYBITSTREAM.OBJ|W:\STUDENT\2017-18\ST20123567\CROSSPLATFORMSERIALISATION\SRC\BUILD\SERIALISATION\SERIALISATION.DIR\DEBUG\INPUTMEMORYSTREAM.OBJ|W:\STUDENT\2017-18\ST20123567\CROSSPLATFORMSERIALISATION\SRC\BUILD\SERIALISATION\SERIALISATION.DIR\DEBUG\OUTPUTMEMORYBITSTREAM.OBJ|W:\STUDENT\2017-18\ST20123567\CROSSPLATFORMSERIALISATION\SRC\BUILD\SERIALISATION\SERIALISATION.DIR\DEBUG\OUTPUTMEMORYSTREAM.OBJ
/OUT:"W:\STUDENT\2017-18\ST20123567\CROSSPLATFORMSERIALISATION\SRC\BUILD\LIB\DEBUG\SERIALISATION.LIB" /NOLOGO /MACHINE:X64  /machine:x64 SERIALISATION.DIR\DEBUG\INPUTMEMORYBITSTREAM.OBJ
SERIALISATION.DIR\DEBUG\INPUTMEMORYSTREAM.OBJ
SERIALISATION.DIR\DEBUG\OUTPUTMEMORYBITSTREAM.OBJ
SERIALISATION.DIR\DEBUG\OUTPUTMEMORYSTREAM.OBJ
