^W:\STUDENT\2017-18\ST20123567\CROSSPLATFORMSERIALISATION\SRC\BUILD\NETWORKGAME_TEST.DIR\DEBUG\BYTESWAPTESTHARNESS.OBJ|W:\STUDENT\2017-18\ST20123567\CROSSPLATFORMSERIALISATION\SRC\BUILD\NETWORKGAME_TEST.DIR\DEBUG\GAMEOBJECTTESTHARNESS.OBJ|W:\STUDENT\2017-18\ST20123567\CROSSPLATFORMSERIALISATION\SRC\BUILD\NETWORKGAME_TEST.DIR\DEBUG\GTEST_MAIN.OBJ|W:\STUDENT\2017-18\ST20123567\CROSSPLATFORMSERIALISATION\SRC\BUILD\NETWORKGAME_TEST.DIR\DEBUG\MATHTESTHARNESS.OBJ|W:\STUDENT\2017-18\ST20123567\CROSSPLATFORMSERIALISATION\SRC\BUILD\NETWORKGAME_TEST.DIR\DEBUG\MEMORYBITSTREAMTESTHARNESS.OBJ|W:\STUDENT\2017-18\ST20123567\CROSSPLATFORMSERIALISATION\SRC\BUILD\NETWORKGAME_TEST.DIR\DEBUG\MEMORYSTREAMTESTHARNESS.OBJ|W:\STUDENT\2017-18\ST20123567\CROSSPLATFORMSERIALISATION\SRC\BUILD\NETWORKGAME_TEST.DIR\DEBUG\PLAYERTESTHARNESS.OBJ|W:\STUDENT\2017-18\ST20123567\CROSSPLATFORMSERIALISATION\SRC\BUILD\NETWORKGAME_TEST.DIR\DEBUG\RANDOMGENTESTHARNESS.OBJ|W:\STUDENT\2017-18\ST20123567\CROSSPLATFORMSERIALISATION\SRC\BUILD\NETWORKGAME_TEST.DIR\DEBUG\TESTOBJECT.OBJ|W:\STUDENT\2017-18\ST20123567\CROSSPLATFORMSERIALISATION\SRC\BUILD\NETWORKGAME_TEST.DIR\DEBUG\VECTOR3TESTHARNESS.OBJ
/OUT:"W:\STUDENT\2017-18\ST20123567\CROSSPLATFORMSERIALISATION\SRC\BUILD\BIN\DEBUG\NETWORKGAME_TEST.EXE" /INCREMENTAL /NOLOGO LIB\DEBUG\GTEST_MAIND.LIB LIB\DEBUG\STRINGS.LIB LIB\DEBUG\MATHS.LIB LIB\DEBUG\SERIALISATION.LIB LIB\DEBUG\ENGINE.LIB C:\PROGRAMDATA\ANACONDA3\LIBRARY\LIB\LIBBOOST_SERIALIZATION.LIB LIB\DEBUG\GTESTD.LIB LIB\DEBUG\MATHS.LIB LIB\DEBUG\SERIALISATION.LIB LIB\DEBUG\STRINGS.LIB KERNEL32.LIB USER32.LIB GDI32.LIB WINSPOOL.LIB SHELL32.LIB OLE32.LIB OLEAUT32.LIB UUID.LIB COMDLG32.LIB ADVAPI32.LIB /MANIFEST /MANIFESTUAC:"level='asInvoker' uiAccess='false'" /manifest:embed /DEBUG /PDB:"W:/STUDENT/2017-18/ST20123567/CROSSPLATFORMSERIALISATION/SRC/BUILD/BIN/DEBUG/NETWORKGAME_TEST.PDB" /SUBSYSTEM:CONSOLE /TLBID:1 /DYNAMICBASE /NXCOMPAT /IMPLIB:"W:/STUDENT/2017-18/ST20123567/CROSSPLATFORMSERIALISATION/SRC/BUILD/LIB/DEBUG/NETWORKGAME_TEST.LIB" /MACHINE:X64  /machine:x64 NETWORKGAME_TEST.DIR\DEBUG\BYTESWAPTESTHARNESS.OBJ
NETWORKGAME_TEST.DIR\DEBUG\GAMEOBJECTTESTHARNESS.OBJ
NETWORKGAME_TEST.DIR\DEBUG\MATHTESTHARNESS.OBJ
NETWORKGAME_TEST.DIR\DEBUG\MEMORYBITSTREAMTESTHARNESS.OBJ
NETWORKGAME_TEST.DIR\DEBUG\MEMORYSTREAMTESTHARNESS.OBJ
NETWORKGAME_TEST.DIR\DEBUG\PLAYERTESTHARNESS.OBJ
NETWORKGAME_TEST.DIR\DEBUG\RANDOMGENTESTHARNESS.OBJ
NETWORKGAME_TEST.DIR\DEBUG\TESTOBJECT.OBJ
NETWORKGAME_TEST.DIR\DEBUG\VECTOR3TESTHARNESS.OBJ
NETWORKGAME_TEST.DIR\DEBUG\GTEST_MAIN.OBJ
