^W:\STUDENT\2017-18\ST20123567\CROSSPLATFORMSERIALISATION\SRC\BUILD\GOOGLETEST-SRC\GOOGLETEST\SRC\GTEST_MAIN.CC
W:\STUDENT\2017-18\ST20123567\CROSSPLATFORMSERIALISATION\SRC\BUILD\BIN\DEBUG\GTEST_MAIND.PDB
W:\STUDENT\2017-18\ST20123567\CROSSPLATFORMSERIALISATION\SRC\BUILD\GOOGLETEST-BUILD\GOOGLETEST\GTEST_MAIN.DIR\DEBUG\GTEST_MAIN.OBJ
