^W:\STUDENT\2017-18\ST20123567\CROSSPLATFORMSERIALISATION\SRC\MATHS\GMATH.CPP
/c /I"W:\STUDENT\2017-18\ST20123567\CROSSPLATFORMSERIALISATION\SRC\MATHS" /Zi /nologo /W3 /WX- /diagnostics:column /Od /Ob0 /D WIN32 /D _WINDOWS /D "CMAKE_INTDIR=\"Debug\"" /D _MBCS /Gm- /EHsc /RTC1 /MDd /GS /fp:precise /Zc:wchar_t /Zc:forScope /Zc:inline /GR /std:c++17 /Fo"MATHS.DIR\DEBUG\\" /Fd"MATHS.DIR\DEBUG\MATHS.PDB" /Gd /TP  -std=c++14 W:\STUDENT\2017-18\ST20123567\CROSSPLATFORMSERIALISATION\SRC\MATHS\GMATH.CPP
^W:\STUDENT\2017-18\ST20123567\CROSSPLATFORMSERIALISATION\SRC\MATHS\RANDGEN.CPP
/c /I"W:\STUDENT\2017-18\ST20123567\CROSSPLATFORMSERIALISATION\SRC\MATHS" /Zi /nologo /W3 /WX- /diagnostics:column /Od /Ob0 /D WIN32 /D _WINDOWS /D "CMAKE_INTDIR=\"Debug\"" /D _MBCS /Gm- /EHsc /RTC1 /MDd /GS /fp:precise /Zc:wchar_t /Zc:forScope /Zc:inline /GR /std:c++17 /Fo"MATHS.DIR\DEBUG\\" /Fd"MATHS.DIR\DEBUG\MATHS.PDB" /Gd /TP  -std=c++14 W:\STUDENT\2017-18\ST20123567\CROSSPLATFORMSERIALISATION\SRC\MATHS\RANDGEN.CPP
^W:\STUDENT\2017-18\ST20123567\CROSSPLATFORMSERIALISATION\SRC\MATHS\VECTOR3.CPP
/c /I"W:\STUDENT\2017-18\ST20123567\CROSSPLATFORMSERIALISATION\SRC\MATHS" /Zi /nologo /W3 /WX- /diagnostics:column /Od /Ob0 /D WIN32 /D _WINDOWS /D "CMAKE_INTDIR=\"Debug\"" /D _MBCS /Gm- /EHsc /RTC1 /MDd /GS /fp:precise /Zc:wchar_t /Zc:forScope /Zc:inline /GR /std:c++17 /Fo"MATHS.DIR\DEBUG\\" /Fd"MATHS.DIR\DEBUG\MATHS.PDB" /Gd /TP  -std=c++14 W:\STUDENT\2017-18\ST20123567\CROSSPLATFORMSERIALISATION\SRC\MATHS\VECTOR3.CPP
