#Command: "C:\Program Files (x86)\Microsoft Visual Studio\2019\Community\VC\Tools\MSVC\14.24.28314\bin\HostX64\x64\link.exe" /ERRORREPORT:PROMPT @C:\Users\st20123567\AppData\Local\Temp\tmp926724cb2a874bbe96a025aa5cbf2627.rsp /nologo /incremental /fullbuild
^W:\STUDENT\2017-18\ST20123567\CROSSPLATFORMSERIALISATION\SRC\BUILD\GAME\GAME.DIR\DEBUG\BOBTESTHARNESS.OBJ|W:\STUDENT\2017-18\ST20123567\CROSSPLATFORMSERIALISATION\SRC\BUILD\GAME\GAME.DIR\DEBUG\MAIN.OBJ
W:\STUDENT\2017-18\ST20123567\CROSSPLATFORMSERIALISATION\SRC\BUILD\BIN\DEBUG\GAME.PDB
