^W:\STUDENT\2017-18\ST20123567\CROSSPLATFORMSERIALISATION\SRC\BUILD\GOOGLETEST-SRC\GOOGLETEST\SRC\GTEST-ALL.CC
W:\STUDENT\2017-18\ST20123567\CROSSPLATFORMSERIALISATION\SRC\BUILD\BIN\DEBUG\GTESTD.PDB
W:\STUDENT\2017-18\ST20123567\CROSSPLATFORMSERIALISATION\SRC\BUILD\GOOGLETEST-BUILD\GOOGLETEST\GTEST.DIR\DEBUG\GTEST-ALL.OBJ
